{
  "swagger": "2.0",
  "info": {
    "version": "1.0.0",
    "title": "Snack Machine",
    "description": "Minutrade snack machine API",
    "license": {
      "name": "MIT",
      "url": "https://opensource.org/licenses/MIT"
    }
  },
  "host": "localhost:3030",
  "basePath": "/",
  "tags": [
    {
      "name": "Cards",
      "description": "API for cards in the system"
    }
  ],
  "schemes": [
    "http"
  ],
  "consumes": [
    "application/json"
  ],
  "produces": [
    "application/json"
  ],
  "paths": {
    "/cards": {
      "get": {
        "tags": [
          "Cards"
        ],
        "summary": "Get all cards in system",
        "responses": {
          "200": {
            "description": "OK",
            "schema": {
              "$ref": "#/definitions/Users"
            }
          }
        }
      },
      "post": {
        "tags": [
          "Cards"
        ],
        "summary": "Create a card",
        "responses": {
          "200": {
            "description": "Card created",
            "schema": {
              "$ref": "#/definitions/Card"
            }
          }
        }
      }
    },
    "/cards/{cardId}": {
      "parameters": [
        {
          "name": "cardId",
          "in": "path",
          "required": true,
          "description": "ID of card that we want to find",
          "type": "string"
        }
      ],
      "get": {
        "tags": [
          "Cards"
        ],
        "summary": "Get card with given ID",
        "responses": {
          "200": {
            "description": "Card is found",
            "schema": {
              "$ref": "#/definitions/Card"
            }
          }
        }
      }
    },
    "/cards/{cardId}/transactions/{itemId}": {
      "parameters": [
        {
          "name": "cardId",
          "in": "path",
          "required": true,
          "description": "ID of card that we want to find",
          "type": "string"
        },
        {
          "name": "itemId",
          "in": "path",
          "required": true,
          "description": "ID of item that we want to buy",
          "type": "string"
        }
      ],
      "post": {
        "tags": [
          "Cards"
        ],
        "summary": "Purchase a item on a card",
        "responses": {
          "200": {
            "description": "Item bought",
            "schema": {
              "$ref": "#/definitions/Card"
            }
          }
        }
      }
    },
    "/items": {
      "get": {
        "tags": [
          "Items"
        ],
        "summary": "Get all items in system",
        "responses": {
          "200": {
            "description": "OK",
            "schema": {
              "$ref": "#/definitions/Items"
            }
          }
        }
      },
      "post": {
        "tags": [
          "Items"
        ],
        "summary": "Create a item",
        "responses": {
          "200": {
            "description": "Item created",
            "schema": {
              "$ref": "#/definitions/Items"
            }
          }
        }
      }
    }
  },
  "definitions": {
    "Card": {
      "required": [
        "_id"
      ],
      "properties": {
        "_id": {
          "type": "string",
          "uniqueItems": true
        },
        "transactions": {
          "$ref": "#/definitions/Transaction"
        }
      }
    },
    "Transaction": {
      "required": [
        "_id"
      ],
      "properties": {
        "_id": {
          "type": "string",
          "uniqueItems": true
        },
        "kind": {
          "type": "string"
        },
        "amount": {
          "type": "number"
        },
        "item": {
          "$ref": "#/definitions/Item"
        }
      }
    },
    "Item": {
      "required": [
        "_id"
      ],
      "properties": {
        "_id": {
          "type": "string",
          "uniqueItems": true
        },
        "name": {
          "type": "string"
        },
        "value": {
          "type": "number"
        }
      }
    }
  }
}
